{
    "CACHE_L_CB": 0,
    "CACHE_P_CB": 0,
    "G_CB_RES_DEST_LEVEL": 2,
    "INPUT_SIZE_L_1": 1024,
    "INPUT_SIZE_R_1": 1024,
    "L_CB_RES_DEST_LEVEL": 2,
    "L_CB_SIZE_L_1": 1024,
    "L_CB_SIZE_R_1": 4,
    "L_REDUCTION": 1,
    "L_WRITE_BACK": 1,
    "NUM_WG_L_1": 1024,
    "NUM_WG_R_1": 1,
    "NUM_WI_L_1": 2,
    "NUM_WI_R_1": 1,
    "OCL_DIM_L_1": 1,
    "OCL_DIM_R_1": 0,
    "P_CB_RES_DEST_LEVEL": 0,
    "P_CB_SIZE_L_1": 1024,
    "P_CB_SIZE_R_1": 4,
    "P_WRITE_BACK": 0
}
