{
  "CACHE_L_CB": 1,
  "CACHE_P_CB": 1,
  "G_CB_RES_DEST_LEVEL": 2,
  "INPUT_SIZE_L_1": 24,
  "INPUT_SIZE_L_2": 16,
  "INPUT_SIZE_L_3": 16,
  "INPUT_SIZE_L_4": 16,
  "INPUT_SIZE_L_5": 24,
  "INPUT_SIZE_L_6": 16,
  "INPUT_SIZE_R_1": 24,
  "L_CB_RES_DEST_LEVEL": 0,
  "L_CB_SIZE_L_1": 2,
  "L_CB_SIZE_L_2": 4,
  "L_CB_SIZE_L_3": 4,
  "L_CB_SIZE_L_4": 2,
  "L_CB_SIZE_L_5": 3,
  "L_CB_SIZE_L_6": 16,
  "L_CB_SIZE_R_1": 3,
  "L_REDUCTION": 1,
  "L_WRITE_BACK": 6,
  "NUM_WG_L_1": 12,
  "NUM_WG_L_2": 4,
  "NUM_WG_L_3": 1,
  "NUM_WG_L_4": 8,
  "NUM_WG_L_5": 8,
  "NUM_WG_L_6": 1,
  "NUM_WG_R_1": 1,
  "NUM_WI_L_1": 1,
  "NUM_WI_L_2": 1,
  "NUM_WI_L_3": 1,
  "NUM_WI_L_4": 2,
  "NUM_WI_L_5": 3,
  "NUM_WI_L_6": 16,
  "NUM_WI_R_1": 1,
  "OCL_DIM_L_1": 6,
  "OCL_DIM_L_2": 3,
  "OCL_DIM_L_3": 5,
  "OCL_DIM_L_4": 4,
  "OCL_DIM_L_5": 2,
  "OCL_DIM_L_6": 1,
  "OCL_DIM_R_1": 0,
  "P_CB_RES_DEST_LEVEL": 0,
  "P_CB_SIZE_L_1": 2,
  "P_CB_SIZE_L_2": 2,
  "P_CB_SIZE_L_3": 1,
  "P_CB_SIZE_L_4": 1,
  "P_CB_SIZE_L_5": 1,
  "P_CB_SIZE_L_6": 1,
  "P_CB_SIZE_R_1": 3,
  "P_WRITE_BACK": 0
}